<?xml version="1.0" encoding="UTF-8"?>
<session version="1.0">
<refactoring comment="Delete 4 resources" deleteContents="false" description="Delete 4 resources" element1="/assignment2_ffs/src/State.c" element2="/assignment2_ffs/src/State.h" element3="/assignment2_ffs/src/StateManager.c" element4="/assignment2_ffs/src/StateManager.h" flags="7" id="org.eclipse.ltk.core.refactoring.delete.resources" resources="4" stamp="1394986023735"/>
</session>